<?xml version="1.0" encoding="utf-8"?>
<!-- Generator: Adobe Illustrator 19.2.1, SVG Export Plug-In . SVG Version: 6.00 Build 0)  -->
<svg version="1.1" id="logo1_1" xmlns="http://www.w3.org/2000/svg" xmlns:xlink="http://www.w3.org/1999/xlink" x="0px" y="0px"
	 viewBox="0 0 300 250" style="enable-background:new 0 0 300 250;" xml:space="preserve">
<style type="text/css">
	.st0{fill:#C69B50;}
	.st1{filter:url(#Adobe_OpacityMaskFilter);}
	.st2{fill:#FFFFFF;}
	.st3{mask:url(#Mask_Mask_1);}
	.st4{fill:#C0A441;}
	.st5{filter:url(#Adobe_OpacityMaskFilter_1_);}
	.st6{mask:url(#Mask_Mask_2);}
</style>
<g transform="matrix( 1.7585906982421875, 0, 0, 1.7585906982421875, 36,189) ">
	<g>
		<g id="Layer0_0_FILL">
			<path class="st0" d="M38.7,15.5h-1.1v0.3H38L36.9,19h-0.4v0.4h1.2V19h-0.4l0.3-0.8h1.5l0.3,0.8H39v0.4h1.3V19h-0.3L38.7,15.5
				 M38.4,15.9l0.7,1.9h-1.4L38.4,15.9z"/>
		</g>
	</g>
</g>
<g transform="matrix( 1.7585906982421875, 0, 0, 1.7585906982421875, 36,189) ">
	<g>
		<g id="Layer0_1_FILL">
			<path class="st0" d="M40.8,15.4v0.4h0.4V19h-0.4v0.4h1.2V19h-0.4v-3.6H40.8z"/>
		</g>
	</g>
</g>
<g transform="matrix( 1.7585906982421875, 0, 0, 1.7585906982421875, 36,189) ">
	<g>
		<g id="Layer0_2_FILL">
			<path class="st0" d="M42.5,15.4v0.4h0.3V19h-0.3v0.4h1.2V19h-0.4v-3.6H42.5z"/>
		</g>
	</g>
</g>
<g transform="matrix( 1.7585906982421875, 0, 0, 1.7585906982421875, 36,189) ">
	<defs>
		<filter id="Adobe_OpacityMaskFilter" filterUnits="userSpaceOnUse" x="45.6" y="15.4" width="31.5" height="4">
			<feColorMatrix  type="matrix" values="1 0 0 0 0  0 1 0 0 0  0 0 1 0 0  0 0 0 1 0"/>
		</filter>
	</defs>
	<mask maskUnits="userSpaceOnUse" x="45.6" y="15.4" width="31.5" height="4" id="Mask_Mask_1">
		<g transform="matrix( 1, 0, 0, 1, 0,0) " class="st1">
			<g>
				<g id="Mask_flash0_ai_Layer_1__Clip_Group__1_0_2_MASK_0_FILL">
					<path class="st2" d="M125.1,20.5V0H0v20.5H125.1z"/>
				</g>
			</g>
		</g>
	</mask>
	<g class="st3">
		<g transform="matrix( 1, 0, 0, 1, 0,0) ">
			<g>
				<g id="flash0_ai_Layer_1__Clip_Group__1_0_Layer2_0_FILL">
					<path class="st0" d="M46.1,16.9l0.6,0c0.5,0,0.7,0.2,0.7,0.6v0.3h-0.7c-0.8,0-1.2,0.3-1.2,0.8c0,0.6,0.3,0.9,1,0.9
						c0.3,0,0.6-0.1,0.9-0.4v0.3h0.8V19h-0.4v-1.6c0-0.6-0.3-0.9-1-0.9l-1,0.1v0.6h0.4V16.9 M46.8,18h0.6v0.8
						c-0.2,0.2-0.5,0.3-0.8,0.3c-0.4,0-0.7-0.2-0.7-0.5C46,18.2,46.3,18,46.8,18z"/>
				</g>
			</g>
		</g>
		<g transform="matrix( 1, 0, 0, 1, 0,0) ">
			<g>
				<g id="flash0_ai_Layer_1__Clip_Group__1_0_Layer2_1_FILL">
					<path class="st0" d="M48.7,15.4v0.4h0.4V19h-0.4v0.4h0.7l0.1-0.3c0.2,0.2,0.5,0.4,0.9,0.4c0.7,0,1-0.5,1-1.5c0-1-0.4-1.5-1-1.5
						c-0.4,0-0.7,0.1-0.9,0.3v-1.4H48.7 M49.5,17.1c0.2-0.2,0.5-0.3,0.8-0.3c0.5,0,0.8,0.4,0.8,1.1c0,0.7-0.3,1.1-0.8,1.1
						c-0.2,0-0.5-0.1-0.8-0.3V17.1z"/>
				</g>
			</g>
		</g>
		<g transform="matrix( 1, 0, 0, 1, 0,0) ">
			<g>
				<g id="flash0_ai_Layer_1__Clip_Group__1_0_Layer2_2_FILL">
					<path class="st0" d="M52.3,18c0,1,0.4,1.5,1.3,1.5c0.9,0,1.3-0.5,1.3-1.5c0-1-0.4-1.5-1.3-1.5C52.8,16.5,52.3,17,52.3,18
						 M52.8,18c0-0.8,0.3-1.1,0.8-1.1c0.6,0,0.9,0.4,0.9,1.1c0,0.7-0.3,1.1-0.9,1.1C53.1,19.1,52.8,18.7,52.8,18z"/>
				</g>
			</g>
		</g>
		<g transform="matrix( 1, 0, 0, 1, 0,0) ">
			<g>
				<g id="flash0_ai_Layer_1__Clip_Group__1_0_Layer2_3_FILL">
					<path class="st0" d="M56.1,16.9l0.6,0c0.5,0,0.7,0.2,0.7,0.6v0.3h-0.7c-0.8,0-1.2,0.3-1.2,0.8c0,0.6,0.3,0.9,1,0.9
						c0.3,0,0.6-0.1,0.8-0.4v0.3h0.8V19h-0.4v-1.6c0-0.6-0.3-0.9-1-0.9l-1.1,0.1v0.6h0.3V16.9 M56.9,18h0.6v0.8
						c-0.2,0.2-0.5,0.3-0.8,0.3c-0.4,0-0.7-0.2-0.7-0.5C56,18.2,56.3,18,56.9,18z"/>
				</g>
			</g>
		</g>
		<g transform="matrix( 1, 0, 0, 1, 0,0) ">
			<g>
				<g id="flash0_ai_Layer_1__Clip_Group__1_0_Layer2_4_FILL">
					<path class="st0" d="M58.8,16.6v0.3h0.4V19h-0.4v0.4H60V19h-0.5v-1.8c0.3-0.2,0.7-0.4,1.1-0.4v-0.4c-0.4,0-0.7,0.2-1.1,0.5
						v-0.4H58.8z"/>
				</g>
			</g>
		</g>
		<g transform="matrix( 1, 0, 0, 1, 0,0) ">
			<g>
				<g id="flash0_ai_Layer_1__Clip_Group__1_0_Layer2_5_FILL">
					<path class="st0" d="M62.8,15.4v0.4h0.4v1c-0.2-0.2-0.5-0.3-0.9-0.3c-0.7,0-1,0.5-1,1.5c0,1,0.4,1.5,1,1.5
						c0.4,0,0.7-0.1,0.9-0.4v0.3H64V19h-0.4v-3.6H62.8 M61.6,18c0-0.8,0.3-1.1,0.8-1.1c0.4,0,0.6,0.1,0.8,0.3v1.7
						c-0.2,0.2-0.4,0.3-0.8,0.3C61.9,19.1,61.6,18.7,61.6,18z"/>
				</g>
			</g>
		</g>
		<g transform="matrix( 1, 0, 0, 1, 0,0) ">
			<g>
				<g id="flash0_ai_Layer_1__Clip_Group__1_0_Layer2_6_FILL">
					<path class="st0" d="M66.1,17.3h0.3v-0.4l0.6,0c0.5,0,0.7,0.2,0.7,0.6v0.3h-0.7c-0.8,0-1.2,0.3-1.2,0.8c0,0.6,0.3,0.9,1,0.9
						c0.3,0,0.6-0.1,0.9-0.4v0.3h0.8V19h-0.4v-1.6c0-0.6-0.3-0.9-1-0.9l-1,0.1V17.3 M67.2,18h0.6v0.8c-0.2,0.2-0.5,0.3-0.8,0.3
						c-0.4,0-0.6-0.2-0.6-0.5C66.3,18.2,66.6,18,67.2,18z"/>
				</g>
			</g>
		</g>
		<g transform="matrix( 1, 0, 0, 1, 0,0) ">
			<g>
				<g id="flash0_ai_Layer_1__Clip_Group__1_0_Layer2_7_FILL">
					<path class="st0" d="M70.7,16.5c-0.3,0-0.5,0.1-0.8,0.4v-0.4h-0.8v0.3h0.4V19h-0.4v0.4h1.2V19h-0.3v-1.8
						c0.4-0.3,0.6-0.4,0.8-0.4c0.4,0,0.7,0.2,0.7,0.6V19h-0.4v0.4H72V19h-0.4v-1.5l0-0.3c0.4-0.3,0.6-0.4,0.8-0.4
						c0.4,0,0.7,0.2,0.7,0.7V19h-0.4v0.4h1.2V19h-0.3v-1.6c0-0.6-0.3-0.9-0.8-0.9c-0.3,0-0.7,0.2-1.1,0.5c0-0.3-0.2-0.4-0.5-0.5
						H70.7z"/>
				</g>
			</g>
		</g>
		<g transform="matrix( 1, 0, 0, 1, 0,0) ">
			<g>
				<g id="flash0_ai_Layer_1__Clip_Group__1_0_Layer2_8_FILL">
					<path class="st0" d="M76.3,17.4v0.3h-0.7c-0.8,0-1.2,0.3-1.2,0.8c0,0.6,0.3,0.9,1,0.9c0.3,0,0.6-0.1,0.8-0.4v0.3h0.8V19h-0.4
						v-1.6c0-0.6-0.3-0.9-1-0.9l-1,0.1v0.6H75v-0.4l0.6,0C76.1,16.8,76.3,17,76.3,17.4 M75.5,19.1c-0.5,0-0.7-0.2-0.7-0.5
						c0-0.4,0.3-0.6,0.8-0.6h0.6v0.8C76.2,19,75.9,19.1,75.5,19.1z"/>
				</g>
			</g>
		</g>
	</g>
</g>
<g transform="matrix( 1.7585906982421875, 0, 0, 1.7585906982421875, 36,189) ">
	<g>
		<g id="Layer0_4_FILL">
			<path class="st0" d="M79.9,16.6h-2.2v0.7H78v-0.4h1.4l-1.8,2.2v0.3H80v-0.7h-0.3v0.4h-1.5V19l1.7-2.1V16.6z"/>
		</g>
	</g>
</g>
<g transform="matrix( 1.7585906982421875, 0, 0, 1.7585906982421875, 36,189) ">
	<g>
		<g id="Layer0_5_FILL">
			<path class="st4" d="M81.7,19.4V19h-0.4v-2.4h-0.8v0.3h0.4V19h-0.4v0.4H81.7 M81.3,16.1v-0.7h-0.4v0.7H81.3z"/>
		</g>
	</g>
</g>
<g transform="matrix( 1.7585906982421875, 0, 0, 1.7585906982421875, 36,189) ">
	<defs>
		<filter id="Adobe_OpacityMaskFilter_1_" filterUnits="userSpaceOnUse" x="0" y="0" width="125.1" height="20.5">
			<feColorMatrix  type="matrix" values="1 0 0 0 0  0 1 0 0 0  0 0 1 0 0  0 0 0 1 0"/>
		</filter>
	</defs>
	<mask maskUnits="userSpaceOnUse" x="0" y="0" width="125.1" height="20.5" id="Mask_Mask_2">
		<g transform="matrix( 1, 0, 0, 1, 0,0) " class="st5">
			<g>
				<g id="Mask_flash0_ai_Layer_1__Clip_Group__0_2_MASK_0_FILL">
					<path class="st2" d="M125.1,20.5V0H0v20.5H125.1z"/>
				</g>
			</g>
		</g>
	</mask>
	<g class="st6">
		<g transform="matrix( 1, 0, 0, 1, 0,0) ">
			<g>
				<g id="flash0_ai_Layer_1__Clip_Group__0_Layer2_0_FILL">
					<path class="st0" d="M84.9,17.4c0-0.6-0.3-0.9-0.8-0.9c-0.4,0-0.7,0.2-1,0.5v-0.4h-0.8v0.3h0.4V19h-0.4v0.4h1.2V19H83v-1.8
						c0.4-0.3,0.7-0.4,0.9-0.4c0.4,0,0.6,0.2,0.6,0.7V19h-0.4v0.4h1.2V19h-0.4V17.4z"/>
				</g>
			</g>
		</g>
		<g transform="matrix( 1, 0, 0, 1, 0,0) ">
			<g>
				<g id="flash0_ai_Layer_1__Clip_Group__0_Layer2_1_FILL">
					<path class="st0" d="M88.4,16.6h-0.9l-0.4-0.1c-0.7,0-1.1,0.3-1.1,1c0,0.4,0.2,0.6,0.4,0.8v0c-0.2,0.1-0.3,0.3-0.3,0.5
						c0,0.2,0,0.4,0.2,0.5c-0.4,0.2-0.5,0.4-0.5,0.6c0,0.5,0.4,0.7,1.1,0.7c1.1,0,1.6-0.3,1.6-0.9c0-0.4-0.3-0.6-0.9-0.6l-0.9-0.1
						c-0.2,0-0.3-0.1-0.3-0.2s0.1-0.3,0.2-0.4l0.4,0c0.7,0,1.1-0.3,1.1-0.9c0-0.3-0.1-0.5-0.3-0.6h0.6V16.6 M87.1,18.1
						c-0.5,0-0.7-0.2-0.7-0.6c0-0.5,0.2-0.7,0.7-0.7c0.5,0,0.8,0.2,0.8,0.7C87.8,17.9,87.6,18.1,87.1,18.1 M87.6,19.3
						c0.3,0,0.5,0.2,0.5,0.4c0,0.4-0.3,0.6-1,0.6c-0.6,0-0.9-0.2-0.9-0.5c0-0.2,0.1-0.4,0.4-0.5L87.6,19.3z"/>
				</g>
			</g>
		</g>
		<g transform="matrix( 1, 0, 0, 1, 0,0) ">
			<g>
				<g id="flash0_ai_Layer_1__Clip_Group__0_Layer2_2_FILL">
					<path class="st0" d="M124.4,5.6c0.5,0,0.7-0.2,0.7-0.7c0-0.5-0.2-0.7-0.7-0.7c-0.5,0-0.8,0.2-0.8,0.7
						C123.6,5.4,123.9,5.6,124.4,5.6 M124.9,4.9c0,0.4-0.2,0.5-0.5,0.5c-0.4,0-0.6-0.2-0.6-0.5c0-0.4,0.2-0.6,0.6-0.6
						C124.8,4.3,124.9,4.5,124.9,4.9 M124.4,4.5l-0.3,0.1v0.7h0.2V4.9h0c0.1,0,0.2,0.1,0.2,0.2l0.1,0.2h0.2l-0.1-0.2
						c-0.1-0.1-0.1-0.2-0.1-0.2l0.1-0.2l0-0.2C124.6,4.5,124.5,4.5,124.4,4.5 M124.5,4.7l-0.2,0.1h0V4.6h0.1
						C124.5,4.6,124.5,4.7,124.5,4.7z"/>
				</g>
			</g>
		</g>
		<g transform="matrix( 1, 0, 0, 1, 0,0) ">
			<g>
				<g id="flash0_ai_Layer_1__Clip_Group__0_Layer2_3_FILL">
					<path class="st0" d="M24.3,5.8c0.1-0.4-0.1-0.8-0.5-1c-0.3-0.3-0.8-0.5-1.4-0.5h-3.3v0.3h0.1l0.1,0v4.4h-0.1v0.3h1.5V9.1h-0.2
						V7.3h1.2L22.9,9l0.1,0.1h-0.1v0.3h1.7V9.1h-0.1c0,0-0.1-0.1-0.2-0.2l-1.1-1.6C24,7.1,24.4,6.6,24.3,5.8 M22.4,5.3
						c0.5,0,0.8,0.2,0.8,0.5c0,0.3-0.2,0.5-0.8,0.5h-1.9v-1H22.4z"/>
				</g>
			</g>
		</g>
		<g transform="matrix( 1, 0, 0, 1, 0,0) ">
			<g>
				<g id="flash0_ai_Layer_1__Clip_Group__0_Layer2_4_FILL">
					<path class="st0" d="M30.5,8.8c0.6-0.5,0.9-1.1,0.9-1.9c0-0.8-0.3-1.5-0.9-2c-0.5-0.4-1.2-0.6-2-0.6c-0.8,0-1.5,0.2-2,0.6
						c-0.6,0.5-0.9,1.2-0.9,2c0,0.8,0.3,1.4,0.9,1.9c0.5,0.4,1.2,0.6,2,0.6C29.3,9.4,30,9.2,30.5,8.8 M27.3,5.7
						c0.3-0.3,0.7-0.4,1.2-0.4c1.1,0,1.7,0.5,1.7,1.6c0,1-0.6,1.5-1.7,1.5c-0.5,0-0.9-0.1-1.2-0.4c-0.3-0.3-0.5-0.7-0.5-1.2
						C26.8,6.4,27,6,27.3,5.7z"/>
				</g>
			</g>
		</g>
		<g transform="matrix( 1, 0, 0, 1, 0,0) ">
			<g>
				<g id="flash0_ai_Layer_1__Clip_Group__0_Layer2_5_FILL">
					<path class="st0" d="M37.9,4.7l-0.1,0.1h0c-0.2-0.1-0.4-0.2-0.6-0.3c-0.5-0.2-1-0.3-1.5-0.3c-0.9,0-1.6,0.2-2.2,0.7
						c-0.6,0.5-0.9,1.1-0.9,1.9c0,0.8,0.3,1.5,0.9,1.9c0.6,0.4,1.3,0.6,2.1,0.6c0.7,0,1.3-0.1,1.8-0.4l0.5-0.3L38,8.7h0.2l0.2-0.1
						l-0.8-1.2l-0.2,0.1l0,0l0,0.1v0.1c0,0.2-0.1,0.3-0.4,0.5c-0.3,0.2-0.7,0.2-1.2,0.2c-1.3,0-2-0.5-2-1.5c0-1.1,0.6-1.6,1.9-1.6
						c0.3,0,0.7,0.1,1.1,0.2l0.5,0.3v0.2L37.3,6L37.4,6l0-0.1l0.7-1.2L37.9,4.7L37.9,4.7z"/>
				</g>
			</g>
		</g>
		<g transform="matrix( 1, 0, 0, 1, 0,0) ">
			<g>
				<g id="flash0_ai_Layer_1__Clip_Group__0_Layer2_6_FILL">
					<path class="st0" d="M41.2,4.6V4.3h-1.5v0.3h0.1l0,0v4.4h-0.1v0.3h1.5V9.1H41L41,9V7.6L41.7,7l1.7,2v0.1h-0.1v0.3h1.8V9.1H45
						C44.9,9,44.8,9,44.7,8.9l-2.1-2.5l1.8-1.4l0.4-0.3h0.1V4.3h-1.9v0.3l0,0l-2,1.7V4.7h0l0,0H41.2z"/>
				</g>
			</g>
		</g>
		<g transform="matrix( 1, 0, 0, 1, 0,0) ">
			<g>
				<g id="flash0_ai_Layer_1__Clip_Group__0_Layer2_7_FILL">
					<path class="st0" d="M51.3,4.6V4.3h-1.6v0.3h0.1v0l-1.1,1.5l-1.1-1.5l0,0h0V4.3h-1.6v0.3H46c0.1,0,0.1,0.1,0.3,0.2L48,7.2v1.8
						h-0.1v0.3h1.5V9.1h-0.2l0-0.1V7.2l1.8-2.4C51,4.7,51.1,4.6,51.3,4.6L51.3,4.6z"/>
				</g>
			</g>
		</g>
		<g transform="matrix( 1, 0, 0, 1, 0,0) ">
			<g>
				<g id="flash0_ai_Layer_1__Clip_Group__0_Layer2_8_FILL">
					<path class="st0" d="M61.5,4.6V4.3h-1.7v0.3h0.1l0,0l0,0.1l-1.4,2.5l-1.3-2.5l0-0.1l0,0h0.2V4.3h-1.7v0.3h0.1l0,0v4.4h-0.1v0.3
						h1.4V9.1h-0.2V6.4l1.5,3h0.3l1.5-2.9v2.6H60v0.3h1.5V9.1h-0.2V4.7L61.5,4.6L61.5,4.6z"/>
				</g>
			</g>
		</g>
		<g transform="matrix( 1, 0, 0, 1, 0,0) ">
			<g>
				<g id="flash0_ai_Layer_1__Clip_Group__0_Layer2_9_FILL">
					<path class="st0" d="M65.7,4.3c-0.8,0-1.5,0.2-2.1,0.6c-0.6,0.5-0.9,1.2-0.9,2c0,0.8,0.3,1.4,0.9,1.9c0.5,0.4,1.2,0.6,2.1,0.6
						s1.5-0.2,2-0.6c0.6-0.5,0.8-1.1,0.8-1.9c0-0.8-0.3-1.5-0.8-2C67.3,4.5,66.6,4.3,65.7,4.3 M64.5,5.7c0.3-0.3,0.7-0.4,1.2-0.4
						c1.1,0,1.7,0.5,1.7,1.6c0,0.5-0.2,0.9-0.5,1.2c-0.3,0.3-0.7,0.4-1.2,0.4S64.8,8.3,64.5,8C64.2,7.8,64,7.4,64,6.9
						S64.2,6,64.5,5.7z"/>
				</g>
			</g>
		</g>
		<g transform="matrix( 1, 0, 0, 1, 0,0) ">
			<g>
				<g id="flash0_ai_Layer_1__Clip_Group__0_Layer2_10_FILL">
					<path class="st0" d="M71.5,4.6V4.3h-1.6v0.3H70l0,0h0.1v2.9c0,0.7,0.2,1.1,0.7,1.4c0.4,0.3,1,0.4,1.8,0.4s1.5-0.1,1.9-0.4
						c0.5-0.3,0.7-0.7,0.7-1.4V4.7l0.1,0h0.1V4.3h-1.5v0.3H74l0.1,0h0v2.8c0,0.3-0.1,0.6-0.3,0.8c-0.2,0.1-0.6,0.2-1.2,0.2
						s-1-0.1-1.1-0.2c-0.2-0.1-0.3-0.4-0.3-0.8V4.7L71.5,4.6L71.5,4.6z"/>
				</g>
			</g>
		</g>
		<g transform="matrix( 1, 0, 0, 1, 0,0) ">
			<g>
				<g id="flash0_ai_Layer_1__Clip_Group__0_Layer2_11_FILL">
					<path class="st0" d="M82.1,4.7L82.1,4.7l0.2-0.1V4.3h-1.4v0.3h0.2v2.8l-2.7-2.8h0.2V4.3h-1.7v0.3h0.2V9l0,0.1h-0.2v0.3h1.4V9.1
						h-0.2V6l2.8,3h-0.1v0.3h1.4V9.1h-0.1L82.1,9V4.7z"/>
				</g>
			</g>
		</g>
		<g transform="matrix( 1, 0, 0, 1, 0,0) ">
			<g>
				<g id="flash0_ai_Layer_1__Clip_Group__0_Layer2_12_FILL">
					<path class="st0" d="M88.5,4.2h-0.4v0.1c0,0,0,0-0.1,0h-4.2c-0.1,0-0.1,0-0.1,0V4.2h-0.3v1.3h0.3V5.4l0.1-0.1h1.5V9l-0.1,0.1
						h-0.1v0.3h1.6V9.1h-0.2L86.6,9V5.3h1.5l0.1,0.1v0.1h0.4V4.2z"/>
				</g>
			</g>
		</g>
		<g transform="matrix( 1, 0, 0, 1, 0,0) ">
			<g>
				<g id="flash0_ai_Layer_1__Clip_Group__0_Layer2_13_FILL">
					<path class="st0" d="M92.4,4.6V4.3h-1.7v0.3h0.1l0.1,0l-0.1,0.2l-1.8,4c-0.1,0.1-0.1,0.2-0.2,0.2h-0.1v0.3h1.4V9.1H90l0.4-1
						h2.2l0.4,1h-0.2v0.3h1.6V9.1h-0.1L94.3,9l-0.1-0.2l-2-4.2L92.4,4.6L92.4,4.6 M91.5,5.8l0.7,1.3h-1.3L91.5,5.8z"/>
				</g>
			</g>
		</g>
		<g transform="matrix( 1, 0, 0, 1, 0,0) ">
			<g>
				<g id="flash0_ai_Layer_1__Clip_Group__0_Layer2_14_FILL">
					<path class="st0" d="M97.3,4.6V4.3h-1.7v0.3h0.2l0.1,0V9l-0.1,0.1h-0.2v0.3h1.7V9.1h-0.1L97.1,9L97.1,9V4.7l0.1-0.1L97.3,4.6
						L97.3,4.6z"/>
				</g>
			</g>
		</g>
		<g transform="matrix( 1, 0, 0, 1, 0,0) ">
			<g>
				<g id="flash0_ai_Layer_1__Clip_Group__0_Layer2_15_FILL">
					<path class="st0" d="M102.9,4.3v0.3h0.2v2.8l-2.7-2.8h0.2V4.3h-1.6v0.3h0.2v4.4h-0.2v0.3h1.4V9.1h-0.2V6l2.8,3h-0.1v0.3h1.4
						V9.1h-0.1L104.2,9V4.7l0.1,0h0.1V4.3H102.9z"/>
				</g>
			</g>
		</g>
		<g transform="matrix( 1, 0, 0, 1, 0,0) ">
			<g>
				<g id="flash0_ai_Layer_1__Clip_Group__0_Layer2_16_FILL">
					<path class="st0" d="M110.7,4.2h-0.3v0.2h-4.6v0.3h0.2v4.4h-0.2v0.3h4.6v0.2h0.3V8.2h-0.3v0.1c0,0,0,0-0.1,0h-3.2V7.3h2l0.2,0
						v0.1h0.3V6.1h-0.3v0.1c0,0-0.1,0.1-0.2,0.1h-2v-1h3.1l0.2,0.1v0.2h0.3V4.2z"/>
				</g>
			</g>
		</g>
		<g transform="matrix( 1, 0, 0, 1, 0,0) ">
			<g>
				<g id="flash0_ai_Layer_1__Clip_Group__0_Layer2_17_FILL">
					<path class="st0" d="M116.9,4.2h-0.3v0.2H112v0.3h0.1v4.4H112v0.3h4.6v0.2h0.3V8.2h-0.3v0.1c0,0,0,0-0.1,0h-3.2V7.3h1.9l0.2,0
						v0.1h0.3V6.1h-0.3v0.1c0,0-0.1,0.1-0.2,0.1h-1.9v-1h3.1l0.1,0.1v0.2h0.3V4.2z"/>
				</g>
			</g>
		</g>
		<g transform="matrix( 1, 0, 0, 1, 0,0) ">
			<g>
				<g id="flash0_ai_Layer_1__Clip_Group__0_Layer2_18_FILL">
					<path class="st0" d="M122.9,4.8c-0.3-0.3-0.8-0.5-1.4-0.5h-3.3v0.3h0.1l0.1,0v4.4h-0.2v0.3h1.6V9.1h-0.2V7.3h1.2L122,9l0.1,0.1
						h-0.1v0.3h1.7V9.1h-0.1c0,0-0.1-0.1-0.2-0.2l-1.2-1.6c0.8-0.2,1.2-0.7,1.3-1.5C123.4,5.4,123.3,5,122.9,4.8 M121.5,5.3
						c0.5,0,0.8,0.2,0.8,0.5c0,0.3-0.2,0.5-0.8,0.5h-1.9v-1H121.5z"/>
				</g>
			</g>
		</g>
		<g transform="matrix( 1, 0, 0, 1, 0,0) ">
			<g>
				<g id="flash0_ai_Layer_1__Clip_Group__0_Layer2_19_FILL">
					<path class="st0" d="M14.2,1.9c-0.5-0.3-1.1-0.6-1.9-0.9c-1.6-0.7-3.3-1-5-1S3.8,0.3,2.1,1C1.2,1.3,0.5,1.6,0,1.9l0.8,9.6
						l6.5,3.2l6.1-3.2L14.2,1.9 M11.9,1.4c0.7,0.3,1.3,0.5,1.7,0.8l-0.8,9l-5.5,2.9l-5.9-2.9L0.6,2.2C1.1,2,1.7,1.7,2.5,1.4
						c1.6-0.6,3.2-0.8,4.8-0.8S10.4,0.9,11.9,1.4 M7.9,4.6L7.9,4.6L7.3,3.3L5.7,7l1.5,3l1.1-2.7L7.6,5.5V5.4L7.9,4.6 M12.3,9.9
						l0.6-7.3c-0.4-0.2-0.9-0.5-1.6-0.6c-1.3-0.5-2.7-0.7-4.1-0.7c-2.3,0-4.3,0.5-6,1.4l0.6,7.2l2.3-5.2l0.2-0.1l0.1,0.1l0.8,1.6
						L7.1,2c0-0.1,0.1-0.1,0.2-0.1L7.4,2l1.2,2.5l0,0L8.3,5.4v0.1l0.5,1.1l0.8-1.9l0.1-0.1l0.1,0.1L12.3,9.9 M8.8,8.2l-1.4,3.1
						l-0.1,0.1l-0.2-0.1L5.4,7.9l-1.6,3.8l3.5,1.8l3.2-1.7L8.8,8.2 M2.2,10.9l1,0.5L5,7.1L4.4,6L2.2,10.9 M11,11.4l1-0.5L9.8,6
						L9.2,7.4L11,11.4z"/>
				</g>
			</g>
		</g>
	</g>
</g>
</svg>
