<?xml version="1.0" encoding="utf-8"?>
<!-- Generator: Adobe Illustrator 19.2.1, SVG Export Plug-In . SVG Version: 6.00 Build 0)  -->
<svg version="1.1" id="logo1_1" xmlns="http://www.w3.org/2000/svg" xmlns:xlink="http://www.w3.org/1999/xlink" x="0px" y="0px"
	 viewBox="0 0 300 250" style="enable-background:new 0 0 300 250;" xml:space="preserve">
<style type="text/css">
	.st0{fill:#FFFFFF;}
	.st1{fill:#C69B50;}
</style>
<g transform="matrix( 1, 0, 0, 1, 0,0) ">
	<g>
		<g id="Mask_flash0_ai_Layer_1__Clip_Group__0_2_MASK_0_FILL">
			<path class="st0" d="M256,225.1V189H36v36.1H256z"/>
		</g>
	</g>
</g>
<g transform="matrix( 1, 0, 0, 1, 0,0) ">
	<g>
		<g id="Mask_flash0_ai_Layer_1__Clip_Group__1_0_2_MASK_0_FILL">
			<path class="st0" d="M256,225.1V189H36v36.1H256z"/>
		</g>
	</g>
</g>
<g transform="matrix( 1.7585906982421875, 0, 0, 1.7585906982421875, 36,189) ">
	<g>
		<g transform="matrix( 1, 0, 0, 1, 0,0) ">
			<g>
				<g id="flash0_ai_Layer_1__Clip_Group__0_Layer2_2_FILL">
					<path class="st1" d="M124.4,5.6c0.5,0,0.7-0.2,0.7-0.7s-0.2-0.7-0.7-0.7s-0.8,0.2-0.8,0.7S123.9,5.6,124.4,5.6 M124.9,4.9
						c0,0.4-0.2,0.5-0.5,0.5c-0.4,0-0.6-0.2-0.6-0.5c0-0.4,0.2-0.6,0.6-0.6S124.9,4.5,124.9,4.9 M124.4,4.5l-0.3,0.1v0.7h0.2V4.9
						l0,0c0.1,0,0.2,0.1,0.2,0.2l0.1,0.2h0.2l-0.1-0.2c-0.1-0.1-0.1-0.2-0.1-0.2l0.1-0.2V4.5C124.6,4.5,124.5,4.5,124.4,4.5
						 M124.5,4.7l-0.2,0.1l0,0V4.6L124.5,4.7C124.5,4.6,124.5,4.7,124.5,4.7z"/>
				</g>
			</g>
		</g>
		<g transform="matrix( 1, 0, 0, 1, 0,0) ">
			<g>
				<g id="flash0_ai_Layer_1__Clip_Group__0_Layer2_3_FILL">
					<path class="st1" d="M24.3,5.8c0.1-0.4-0.1-0.8-0.5-1c-0.3-0.3-0.8-0.5-1.4-0.5h-3.3v0.3h0.1h0.1V9h-0.1v0.3h1.5V9.1h-0.2V7.3
						h1.2L22.9,9L23,9.1h-0.1v0.3h1.7V9.1h-0.1c0,0-0.1-0.1-0.2-0.2l-1.1-1.6C24,7.1,24.4,6.6,24.3,5.8 M22.4,5.3
						c0.5,0,0.8,0.2,0.8,0.5S23,6.3,22.4,6.3h-1.9v-1H22.4z"/>
				</g>
			</g>
		</g>
		<g transform="matrix( 1, 0, 0, 1, 0,0) ">
			<g>
				<g id="flash0_ai_Layer_1__Clip_Group__0_Layer2_4_FILL">
					<path class="st1" d="M30.5,8.8c0.6-0.5,0.9-1.1,0.9-1.9s-0.3-1.5-0.9-2c-0.5-0.4-1.2-0.6-2-0.6c-0.8,0-1.5,0.2-2,0.6
						c-0.6,0.5-0.9,1.2-0.9,2s0.3,1.4,0.9,1.9c0.5,0.4,1.2,0.6,2,0.6C29.3,9.4,30,9.2,30.5,8.8 M27.3,5.7c0.3-0.3,0.7-0.4,1.2-0.4
						c1.1,0,1.7,0.5,1.7,1.6c0,1-0.6,1.5-1.7,1.5c-0.5,0-0.9-0.1-1.2-0.4c-0.3-0.3-0.5-0.7-0.5-1.2C26.8,6.4,27,6,27.3,5.7z"/>
				</g>
			</g>
		</g>
		<g transform="matrix( 1, 0, 0, 1, 0,0) ">
			<g>
				<g id="flash0_ai_Layer_1__Clip_Group__0_Layer2_5_FILL">
					<path class="st1" d="M37.9,4.7L37.9,4.7L37.9,4.7c-0.3,0-0.5-0.1-0.7-0.2c-0.5-0.2-1-0.3-1.5-0.3c-0.9,0-1.6,0.2-2.2,0.7
						c-0.6,0.5-0.9,1.1-0.9,1.9s0.3,1.5,0.9,1.9c0.6,0.4,1.3,0.6,2.1,0.6c0.7,0,1.3-0.1,1.8-0.4l0.5-0.3L38,8.7h0.2l0.2-0.1
						l-0.8-1.2l-0.2,0.1l0,0v0.1v0.1c0,0.2-0.1,0.3-0.4,0.5c-0.3,0.2-0.7,0.2-1.2,0.2c-1.3,0-2-0.5-2-1.5c0-1.1,0.6-1.6,1.9-1.6
						c0.3,0,0.7,0.1,1.1,0.2l0.5,0.3V6v0h0.1V5.9l0.7-1.2H37.9L37.9,4.7z"/>
				</g>
			</g>
		</g>
		<g transform="matrix( 1, 0, 0, 1, 0,0) ">
			<g>
				<g id="flash0_ai_Layer_1__Clip_Group__0_Layer2_6_FILL">
					<path class="st1" d="M41.2,4.6V4.3h-1.5v0.3h0.1l0,0V9h-0.1v0.3h1.5V9.1H41V9V7.6L41.7,7l1.7,2v0.1h-0.1v0.3h1.8V9.1H45
						C44.9,9,44.8,9,44.7,8.9l-2.1-2.5L44.4,5l0.4-0.3h0.1V4.3H43v0.3l0,0l-2,1.7V4.7l0,0l0,0L41.2,4.6L41.2,4.6z"/>
				</g>
			</g>
		</g>
		<g transform="matrix( 1, 0, 0, 1, 0,0) ">
			<g>
				<g id="flash0_ai_Layer_1__Clip_Group__0_Layer2_7_FILL">
					<path class="st1" d="M51.3,4.6V4.3h-1.6v0.3h0.1l0,0l-1.1,1.5l-1.1-1.5l0,0l0,0V4.3H46v0.3h0c0.1,0,0.1,0.1,0.3,0.2L48,7.2V9
						h-0.1v0.3h1.5V9.1h-0.2V9V7.2L51,4.8C51,4.7,51.1,4.6,51.3,4.6L51.3,4.6z"/>
				</g>
			</g>
		</g>
		<g transform="matrix( 1, 0, 0, 1, 0,0) ">
			<g>
				<g id="flash0_ai_Layer_1__Clip_Group__0_Layer2_8_FILL">
					<path class="st1" d="M61.5,4.6V4.3h-1.7v0.3h0.1l0,0v0.1l-1.4,2.5l-1.3-2.5V4.6l0,0h0.2V4.3h-1.7v0.3h0.1l0,0V9h-0.1v0.3h1.4
						V9.1h-0.2V6.4l1.5,3h0.3l1.5-2.9v2.6H60v0.3h1.5V9.1h-0.2V4.7L61.5,4.6L61.5,4.6z"/>
				</g>
			</g>
		</g>
		<g transform="matrix( 1, 0, 0, 1, 0,0) ">
			<g>
				<g id="flash0_ai_Layer_1__Clip_Group__0_Layer2_9_FILL">
					<path class="st1" d="M65.7,4.3c-0.8,0-1.5,0.2-2.1,0.6c-0.6,0.5-0.9,1.2-0.9,2s0.3,1.4,0.9,1.9c0.5,0.4,1.2,0.6,2.1,0.6
						s1.5-0.2,2-0.6c0.6-0.5,0.8-1.1,0.8-1.9s-0.3-1.5-0.8-2C67.3,4.5,66.6,4.3,65.7,4.3 M64.5,5.7c0.3-0.3,0.7-0.4,1.2-0.4
						c1.1,0,1.7,0.5,1.7,1.6c0,0.5-0.2,0.9-0.5,1.2c-0.3,0.3-0.7,0.4-1.2,0.4S64.8,8.3,64.5,8C64.2,7.8,64,7.4,64,6.9
						S64.2,6,64.5,5.7z"/>
				</g>
			</g>
		</g>
		<g transform="matrix( 1, 0, 0, 1, 0,0) ">
			<g>
				<g id="flash0_ai_Layer_1__Clip_Group__0_Layer2_10_FILL">
					<path class="st1" d="M71.5,4.6V4.3h-1.6v0.3H70l0,0h0.1v2.9c0,0.7,0.2,1.1,0.7,1.4c0.4,0.3,1,0.4,1.8,0.4s1.5-0.1,1.9-0.4
						c0.5-0.3,0.7-0.7,0.7-1.4V4.7h0.1h0.1V4.3h-1.5v0.3H74h0.1l0,0v2.8c0,0.3-0.1,0.6-0.3,0.8c-0.2,0.1-0.6,0.2-1.2,0.2
						s-1-0.1-1.1-0.2c-0.2-0.1-0.3-0.4-0.3-0.8V4.7L71.5,4.6L71.5,4.6z"/>
				</g>
			</g>
		</g>
		<g transform="matrix( 1, 0, 0, 1, 0,0) ">
			<g>
				<g id="flash0_ai_Layer_1__Clip_Group__0_Layer2_11_FILL">
					<path class="st1" d="M82.1,4.7L82.1,4.7l0.2-0.1V4.3h-1.4v0.3h0.2v2.8l-2.7-2.8h0.2V4.3h-1.7v0.3h0.2V9v0.1h-0.2v0.3h1.4V9.1
						h-0.2V6l2.8,3h-0.1v0.3h1.4V9.1h-0.1l0-0.1V4.7z"/>
				</g>
			</g>
		</g>
		<g transform="matrix( 1, 0, 0, 1, 0,0) ">
			<g>
				<g id="flash0_ai_Layer_1__Clip_Group__0_Layer2_12_FILL">
					<path class="st1" d="M88.5,4.2h-0.4v0.1c0,0,0,0-0.1,0h-4.2c-0.1,0-0.1,0-0.1,0V4.2h-0.3v1.3h0.3V5.4l0.1-0.1h1.5V9l-0.1,0.1
						h-0.1v0.3h1.6V9.1h-0.2L86.6,9V5.3h1.5l0.1,0.1v0.1h0.4L88.5,4.2L88.5,4.2z"/>
				</g>
			</g>
		</g>
		<g transform="matrix( 1, 0, 0, 1, 0,0) ">
			<g>
				<g id="flash0_ai_Layer_1__Clip_Group__0_Layer2_13_FILL">
					<path class="st1" d="M92.4,4.6V4.3h-1.7v0.3h0.1h0.1l-0.1,0.2l-1.8,4C88.9,8.9,88.9,9,88.8,9h-0.1v0.3h1.4V9.1H90l0.4-1h2.2
						l0.4,1h-0.2v0.3h1.6V9.1h-0.1V9l-0.1-0.2l-2-4.2L92.4,4.6L92.4,4.6 M91.5,5.8l0.7,1.3h-1.3L91.5,5.8z"/>
				</g>
			</g>
		</g>
		<g transform="matrix( 1, 0, 0, 1, 0,0) ">
			<g>
				<g id="flash0_ai_Layer_1__Clip_Group__0_Layer2_14_FILL">
					<path class="st1" d="M97.3,4.6V4.3h-1.7v0.3h0.2h0.1V9l-0.1,0.1h-0.2v0.3h1.7V9.1h-0.1L97.1,9l0,0V4.7l0.1-0.1H97.3L97.3,4.6z"
						/>
				</g>
			</g>
		</g>
		<g transform="matrix( 1, 0, 0, 1, 0,0) ">
			<g>
				<g id="flash0_ai_Layer_1__Clip_Group__0_Layer2_15_FILL">
					<path class="st1" d="M102.9,4.3v0.3h0.2v2.8l-2.7-2.8h0.2V4.3H99v0.3h0.2V9H99v0.3h1.4V9.1h-0.2V6l2.8,3h-0.1v0.3h1.4V9.1h-0.1
						l0-0.1V4.7h0.1h0.1V4.3H102.9z"/>
				</g>
			</g>
		</g>
		<g transform="matrix( 1, 0, 0, 1, 0,0) ">
			<g>
				<g id="flash0_ai_Layer_1__Clip_Group__0_Layer2_16_FILL">
					<path class="st1" d="M110.7,4.2h-0.3v0.2h-4.6v0.3h0.2v4.4h-0.2v0.3h4.6v0.2h0.3V8.2h-0.3v0.1c0,0,0,0-0.1,0h-3.2v-1h2h0.2v0.1
						h0.3V6.1h-0.3v0.1c0,0-0.1,0.1-0.2,0.1h-2v-1h3.1l0.2,0.1v0.2h0.3V4.2z"/>
				</g>
			</g>
		</g>
		<g transform="matrix( 1, 0, 0, 1, 0,0) ">
			<g>
				<g id="flash0_ai_Layer_1__Clip_Group__0_Layer2_17_FILL">
					<path class="st1" d="M116.9,4.2h-0.3v0.2H112v0.3h0.1v4.4H112v0.3h4.6v0.2h0.3V8.2h-0.3v0.1c0,0,0,0-0.1,0h-3.2v-1h1.9h0.2v0.1
						h0.3V6.1h-0.3v0.1c0,0-0.1,0.1-0.2,0.1h-1.9v-1h3.1l0.1,0.1v0.2h0.3L116.9,4.2L116.9,4.2z"/>
				</g>
			</g>
		</g>
		<g transform="matrix( 1, 0, 0, 1, 0,0) ">
			<g>
				<g id="flash0_ai_Layer_1__Clip_Group__0_Layer2_18_FILL">
					<path class="st1" d="M122.9,4.8c-0.3-0.3-0.8-0.5-1.4-0.5h-3.3v0.3h0.1h0.1V9h-0.2v0.3h1.6V9.1h-0.2V7.3h1.2L122,9l0.1,0.1H122
						v0.3h1.7V9.1h-0.1c0,0-0.1-0.1-0.2-0.2l-1.2-1.6c0.8-0.2,1.2-0.7,1.3-1.5C123.4,5.4,123.3,5,122.9,4.8 M121.5,5.3
						c0.5,0,0.8,0.2,0.8,0.5s-0.2,0.5-0.8,0.5h-1.9v-1H121.5z"/>
				</g>
			</g>
		</g>
		<g transform="matrix( 1, 0, 0, 1, 0,0) ">
			<g>
				<g id="flash0_ai_Layer_1__Clip_Group__0_Layer2_19_FILL">
					<path class="st1" d="M14.2,1.9c-0.5-0.3-1.1-0.6-1.9-0.9c-1.6-0.7-3.3-1-5-1S3.8,0.3,2.1,1C1.2,1.3,0.5,1.6,0,1.9l0.8,9.6
						l6.5,3.2l6.1-3.2L14.2,1.9 M11.9,1.4c0.7,0.3,1.3,0.5,1.7,0.8l-0.8,9l-5.5,2.9l-5.9-2.9l-0.8-9C1.1,2,1.7,1.7,2.5,1.4
						c1.6-0.6,3.2-0.8,4.8-0.8S10.4,0.9,11.9,1.4 M7.9,4.6L7.9,4.6L7.3,3.3L5.7,7l1.5,3l1.1-2.7L7.6,5.5V5.4L7.9,4.6 M12.3,9.9
						l0.6-7.3C12.5,2.4,12,2.1,11.3,2C10,1.5,8.6,1.3,7.2,1.3c-2.3,0-4.3,0.5-6,1.4l0.6,7.2l2.3-5.2l0.2-0.1l0.1,0.1l0.8,1.6L7.1,2
						c0-0.1,0.1-0.1,0.2-0.1L7.4,2l1.2,2.5l0,0L8.3,5.4v0.1l0.5,1.1l0.8-1.9l0.1-0.1l0.1,0.1L12.3,9.9 M8.8,8.2l-1.4,3.1l-0.1,0.1
						l-0.2-0.1L5.4,7.9l-1.6,3.8l3.5,1.8l3.2-1.7L8.8,8.2 M2.2,10.9l1,0.5L5,7.1L4.4,6L2.2,10.9 M11,11.4l1-0.5L9.8,6L9.2,7.4
						L11,11.4z"/>
				</g>
			</g>
		</g>
	</g>
</g>
</svg>
