
<svg xmlns="http://www.w3.org/2000/svg" version="1.1" xmlns:xlink="http://www.w3.org/1999/xlink" preserveAspectRatio="none" x="0px" y="0px" width="300px" height="250px" viewBox="0 0 300 250">
<defs>
<g id="Layer0_0_FILL">
<path fill="#C0A441" stroke="none" d="
M 38.75 15.55
L 37.65 15.55 37.65 15.9 38.05 15.9 36.9 19.05 36.55 19.05 36.55 19.4 37.75 19.4 37.75 19.05 37.35 19.05 37.65 18.2 39.2 18.2 39.5 19.05 39 19.05 39 19.4 40.25 19.4 40.25 19.05 39.95 19.05 38.75 15.55
M 38.45 15.95
L 39.15 17.9 37.75 17.9 38.45 15.95 Z"/>
</g>

<g id="Layer0_1_FILL">
<path fill="#C0A441" stroke="none" d="
M 40.8 15.45
L 40.8 15.8 41.15 15.8 41.15 19.05 40.8 19.05 40.8 19.4 41.95 19.4 41.95 19.05 41.55 19.05 41.55 15.45 40.8 15.45 Z"/>
</g>

<g id="Layer0_2_FILL">
<path fill="#C0A441" stroke="none" d="
M 42.5 15.45
L 42.5 15.8 42.85 15.8 42.85 19.05 42.5 19.05 42.5 19.4 43.65 19.4 43.65 19.05 43.25 19.05 43.25 15.45 42.5 15.45 Z"/>
</g>

<g id="Mask_flash0_ai_Layer_1__Clip_Group__1_0_2_MASK_0_FILL">
<path fill="#FFFFFF" stroke="none" d="
M 125.1 20.55
L 125.1 0 0 0 0 20.55 125.1 20.55 Z"/>
</g>

<g id="flash0_ai_Layer_1__Clip_Group__1_0_Layer2_0_FILL">
<path fill="#C0A441" stroke="none" d="
M 46.15 16.9
L 46.75 16.85
Q 47.45 16.85 47.45 17.45
L 47.45 17.8 46.8 17.8
Q 45.6 17.8 45.6 18.6 45.6 19.45 46.6 19.45 47.1 19.45 47.45 19.1
L 47.45 19.4 48.25 19.4 48.25 19.05 47.85 19.05 47.85 17.45
Q 47.85 16.5 46.85 16.5
L 45.8 16.65 45.8 17.3 46.15 17.3 46.15 16.9
M 46.85 18.05
L 47.45 18.05 47.45 18.85
Q 47.15 19.15 46.65 19.15 46 19.15 46 18.6 46 18.05 46.85 18.05 Z"/>
</g>

<g id="flash0_ai_Layer_1__Clip_Group__1_0_Layer2_1_FILL">
<path fill="#C0A441" stroke="none" d="
M 48.75 15.45
L 48.75 15.8 49.15 15.8 49.15 19.05 48.75 19.05 48.75 19.4 49.45 19.4 49.55 19.1
Q 49.9 19.45 50.45 19.45 51.5 19.45 51.5 18 51.5 16.5 50.45 16.5 49.9 16.5 49.55 16.85
L 49.55 15.45 48.75 15.45
M 49.55 17.15
Q 49.85 16.85 50.3 16.85 51.1 16.85 51.1 18 51.1 19.1 50.3 19.1 49.95 19.1 49.55 18.85
L 49.55 17.15 Z"/>
</g>

<g id="flash0_ai_Layer_1__Clip_Group__1_0_Layer2_2_FILL">
<path fill="#C0A441" stroke="none" d="
M 52.35 18
Q 52.35 19.45 53.6 19.45 54.9 19.45 54.9 18 54.9 16.5 53.6 16.5 52.35 16.5 52.35 18
M 52.8 18
Q 52.8 16.85 53.6 16.85 54.45 16.85 54.45 18 54.45 19.1 53.6 19.1 52.8 19.1 52.8 18 Z"/>
</g>

<g id="flash0_ai_Layer_1__Clip_Group__1_0_Layer2_3_FILL">
<path fill="#C0A441" stroke="none" d="
M 56.15 16.9
L 56.8 16.85
Q 57.5 16.85 57.5 17.45
L 57.5 17.8 56.85 17.8
Q 55.65 17.8 55.65 18.6 55.65 19.45 56.65 19.45 57.1 19.45 57.5 19.1
L 57.5 19.4 58.3 19.4 58.3 19.05 57.9 19.05 57.9 17.45
Q 57.9 16.5 56.9 16.5
L 55.85 16.65 55.85 17.3 56.15 17.3 56.15 16.9
M 56.9 18.05
L 57.5 18.05 57.5 18.85
Q 57.2 19.15 56.7 19.15 56.05 19.15 56.05 18.6 56.05 18.05 56.9 18.05 Z"/>
</g>

<g id="flash0_ai_Layer_1__Clip_Group__1_0_Layer2_4_FILL">
<path fill="#C0A441" stroke="none" d="
M 58.8 16.6
L 58.8 16.9 59.2 16.9 59.2 19.05 58.8 19.05 58.8 19.4 60.05 19.4 60.05 19.05 59.6 19.05 59.6 17.25
Q 60.05 16.9 60.7 16.9
L 60.7 16.5
Q 60.15 16.5 59.6 17.05
L 59.6 16.6 58.8 16.6 Z"/>
</g>

<g id="flash0_ai_Layer_1__Clip_Group__1_0_Layer2_5_FILL">
<path fill="#C0A441" stroke="none" d="
M 62.8 15.45
L 62.8 15.8 63.2 15.8 63.2 16.85
Q 62.85 16.5 62.3 16.5 61.25 16.5 61.25 18 61.25 19.45 62.3 19.45 62.85 19.45 63.2 19.1
L 63.2 19.4 64 19.4 64 19.05 63.6 19.05 63.6 15.45 62.8 15.45
M 61.65 18
Q 61.65 16.85 62.45 16.85 63 16.85 63.2 17.15
L 63.2 18.85
Q 62.95 19.1 62.45 19.1 61.65 19.1 61.65 18 Z"/>
</g>

<g id="flash0_ai_Layer_1__Clip_Group__1_0_Layer2_6_FILL">
<path fill="#C0A441" stroke="none" d="
M 66.15 17.3
L 66.45 17.3 66.45 16.9 67.1 16.85
Q 67.8 16.85 67.8 17.45
L 67.8 17.8 67.15 17.8
Q 65.95 17.8 65.95 18.6 65.95 19.45 66.95 19.45 67.4 19.45 67.8 19.1
L 67.8 19.4 68.55 19.4 68.55 19.05 68.2 19.05 68.2 17.45
Q 68.2 16.5 67.2 16.5
L 66.15 16.65 66.15 17.3
M 67.2 18.05
L 67.8 18.05 67.8 18.85
Q 67.5 19.15 67 19.15 66.35 19.15 66.35 18.6 66.35 18.05 67.2 18.05 Z"/>
</g>

<g id="flash0_ai_Layer_1__Clip_Group__1_0_Layer2_7_FILL">
<path fill="#C0A441" stroke="none" d="
M 70.75 16.55
Q 70.35 16.55 69.9 17
L 69.9 16.6 69.1 16.6 69.1 16.9 69.5 16.9 69.5 19.05 69.1 19.05 69.1 19.4 70.25 19.4 70.25 19.05 69.9 19.05 69.9 17.25
Q 70.45 16.85 70.65 16.85 71.3 16.85 71.3 17.5
L 71.3 19.05 70.95 19.05 70.95 19.4 72.05 19.4 72.05 19.05 71.7 19.05 71.7 17.5 71.65 17.25
Q 72.2 16.85 72.45 16.85 73.1 16.85 73.1 17.55
L 73.1 19.05 72.7 19.05 72.7 19.4 73.85 19.4 73.85 19.05 73.5 19.05 73.5 17.45
Q 73.5 16.5 72.65 16.5 72.15 16.5 71.6 17.05 71.55 16.65 71.05 16.55
L 70.75 16.55 Z"/>
</g>

<g id="flash0_ai_Layer_1__Clip_Group__1_0_Layer2_8_FILL">
<path fill="#C0A441" stroke="none" d="
M 76.3 17.45
L 76.3 17.8 75.65 17.8
Q 74.5 17.8 74.5 18.6 74.5 19.45 75.5 19.45 75.95 19.45 76.3 19.1
L 76.3 19.4 77.1 19.4 77.1 19.05 76.7 19.05 76.7 17.45
Q 76.7 16.5 75.7 16.5
L 74.65 16.65 74.65 17.3 75 17.3 75 16.9 75.6 16.85
Q 76.3 16.85 76.3 17.45
M 75.55 19.15
Q 74.85 19.15 74.85 18.6 74.85 18.05 75.7 18.05
L 76.3 18.05 76.3 18.85
Q 76.1 19.15 75.55 19.15 Z"/>
</g>

<g id="Layer0_4_FILL">
<path fill="#C0A441" stroke="none" d="
M 79.9 16.6
L 77.75 16.6 77.75 17.3 78.05 17.3 78.05 16.9 79.45 16.9 77.7 19.1 77.7 19.4 80 19.4 80 18.7 79.65 18.7 79.65 19.1 78.2 19.1 78.2 19.05 79.9 16.9 79.9 16.6 Z"/>
</g>

<g id="Layer0_5_FILL">
<path fill="#C0A441" stroke="none" d="
M 81.75 19.4
L 81.75 19.05 81.35 19.05 81.35 16.6 80.55 16.6 80.55 16.9 80.95 16.9 80.95 19.05 80.55 19.05 80.55 19.4 81.75 19.4
M 81.35 16.1
L 81.35 15.45 80.95 15.45 80.95 16.1 81.35 16.1 Z"/>
</g>

<g id="Mask_flash0_ai_Layer_1__Clip_Group__0_2_MASK_0_FILL">
<path fill="#FFFFFF" stroke="none" d="
M 125.1 20.55
L 125.1 0 0 0 0 20.55 125.1 20.55 Z"/>
</g>

<g id="flash0_ai_Layer_1__Clip_Group__0_Layer2_0_FILL">
<path fill="#C0A441" stroke="none" d="
M 84.95 17.45
Q 84.95 16.5 84.1 16.5 83.55 16.5 83.05 17
L 83.05 16.6 82.25 16.6 82.25 16.9 82.65 16.9 82.65 19.05 82.25 19.05 82.25 19.4 83.4 19.4 83.4 19.05 83.05 19.05 83.05 17.25
Q 83.6 16.85 83.95 16.85 84.55 16.85 84.55 17.55
L 84.55 19.05 84.2 19.05 84.2 19.4 85.35 19.4 85.35 19.05 84.95 19.05 84.95 17.45 Z"/>
</g>

<g id="flash0_ai_Layer_1__Clip_Group__0_Layer2_1_FILL">
<path fill="#C0A441" stroke="none" d="
M 88.45 16.6
L 87.5 16.6 87.1 16.5
Q 86 16.5 86 17.5 86 18.05 86.45 18.25
L 86.45 18.3
Q 86.2 18.5 86.15 18.75 86.1 19.05 86.35 19.2 85.8 19.5 85.8 19.85 85.8 20.55 86.95 20.55 88.55 20.55 88.55 19.6 88.55 19 87.7 18.95
L 86.75 18.9
Q 86.5 18.9 86.5 18.7 86.5 18.5 86.7 18.35
L 87.1 18.4
Q 88.2 18.4 88.2 17.5 88.2 17.05 87.85 16.85
L 88.45 16.85 88.45 16.6
M 87.1 18.1
Q 86.4 18.1 86.4 17.5 86.4 16.8 87.1 16.8 87.85 16.8 87.85 17.5 87.85 18.1 87.1 18.1
M 87.6 19.3
Q 88.1 19.35 88.1 19.7 88.1 20.3 87.05 20.3 86.15 20.3 86.15 19.8 86.15 19.55 86.55 19.25
L 87.6 19.3 Z"/>
</g>

<g id="flash0_ai_Layer_1__Clip_Group__0_Layer2_2_FILL">
<path fill="#C2A543" stroke="none" d="
M 124.4 5.6
Q 125.1 5.6 125.1 4.9 125.1 4.2 124.4 4.2 123.65 4.2 123.65 4.9 123.65 5.6 124.4 5.6
M 124.95 4.9
Q 124.95 5.45 124.4 5.45 123.85 5.45 123.85 4.9 123.85 4.3 124.4 4.3 124.95 4.3 124.95 4.9
M 124.4 4.5
L 124.1 4.55 124.1 5.25 124.3 5.25 124.3 4.95 124.35 4.95
Q 124.5 4.95 124.5 5.1
L 124.55 5.25 124.75 5.25 124.7 5.1
Q 124.6 4.95 124.55 4.9
L 124.7 4.75 124.65 4.6
Q 124.55 4.5 124.4 4.5
M 124.55 4.75
L 124.35 4.85 124.3 4.85 124.3 4.65 124.4 4.65
Q 124.55 4.65 124.55 4.75 Z"/>
</g>

<g id="flash0_ai_Layer_1__Clip_Group__0_Layer2_3_FILL">
<path fill="#C2A543" stroke="none" d="
M 24.35 5.85
Q 24.45 5.25 23.9 4.8 23.4 4.35 22.5 4.35
L 19.2 4.35 19.2 4.65 19.3 4.65 19.35 4.7 19.35 9.1 19.2 9.1 19.2 9.4 20.7 9.4 20.7 9.1 20.55 9.1 20.55 7.35 21.75 7.35 22.9 9 22.95 9.1 22.9 9.1 22.9 9.4 24.6 9.4 24.6 9.1 24.5 9.1
Q 24.45 9.1 24.3 8.95
L 23.15 7.35
Q 24.4 7 24.35 5.85
M 22.45 5.35
Q 23.2 5.35 23.2 5.85 23.2 6.35 22.45 6.35
L 20.55 6.35 20.55 5.35 22.45 5.35 Z"/>
</g>

<g id="flash0_ai_Layer_1__Clip_Group__0_Layer2_4_FILL">
<path fill="#C2A543" stroke="none" d="
M 30.55 8.8
Q 31.4 8.05 31.4 6.9 31.4 5.7 30.55 4.95 29.75 4.3 28.5 4.3 27.25 4.3 26.45 4.95 25.6 5.7 25.6 6.9 25.6 8.05 26.45 8.8 27.25 9.45 28.5 9.45 29.75 9.45 30.55 8.8
M 27.3 5.7
Q 27.75 5.3 28.5 5.3 30.2 5.3 30.2 6.9 30.2 8.45 28.5 8.45 27.75 8.45 27.3 8.05 26.8 7.65 26.8 6.9 26.8 6.15 27.3 5.7 Z"/>
</g>

<g id="flash0_ai_Layer_1__Clip_Group__0_Layer2_5_FILL">
<path fill="#C2A543" stroke="none" d="
M 37.9 4.7
L 37.85 4.8 37.8 4.8
Q 37.5 4.65 37.15 4.55 36.4 4.3 35.7 4.3 34.4 4.3 33.55 5 32.6 5.7 32.6 6.9 32.6 8.15 33.55 8.85 34.45 9.45 35.65 9.45 36.75 9.45 37.45 9.05
L 37.9 8.8 38 8.7 38.15 8.7 38.35 8.6 37.55 7.45 37.35 7.55 37.3 7.6 37.35 7.7 37.35 7.75
Q 37.35 8 36.9 8.2 36.4 8.45 35.75 8.45 33.75 8.45 33.75 6.9 33.75 5.3 35.65 5.3 36.15 5.3 36.75 5.5
L 37.2 5.75 37.2 5.95 37.35 6 37.45 6.05 37.5 6 38.2 4.8 38 4.75 37.9 4.7 Z"/>
</g>

<g id="flash0_ai_Layer_1__Clip_Group__0_Layer2_6_FILL">
<path fill="#C2A543" stroke="none" d="
M 41.2 4.65
L 41.2 4.35 39.7 4.35 39.7 4.65 39.8 4.65 39.85 4.7 39.85 9.1 39.7 9.1 39.7 9.4 41.2 9.4 41.2 9.1 41.05 9.1 41 9.05 41 7.65 41.75 7.05 43.4 9.05 43.4 9.1 43.35 9.1 43.35 9.4 45.1 9.4 45.1 9.1 45 9.1
Q 44.85 9 44.75 8.9
L 42.65 6.35 44.4 4.9 44.85 4.65 44.95 4.65 44.95 4.35 43.1 4.35 43.1 4.65 43.05 4.7 41 6.35 41 4.7 41.05 4.7 41.1 4.65 41.2 4.65 Z"/>
</g>

<g id="flash0_ai_Layer_1__Clip_Group__0_Layer2_7_FILL">
<path fill="#C2A543" stroke="none" d="
M 51.3 4.65
L 51.3 4.35 49.7 4.35 49.7 4.65 49.8 4.65 49.8 4.7 48.65 6.2 47.55 4.7 47.5 4.65 47.55 4.65 47.55 4.35 45.9 4.35 45.9 4.65 46 4.65
Q 46.1 4.65 46.25 4.85
L 48.05 7.25 48.05 9.1 47.9 9.1 47.9 9.4 49.4 9.4 49.4 9.1 49.25 9.1 49.2 9 49.2 7.25 50.95 4.85
Q 51.05 4.65 51.2 4.65
L 51.3 4.65 Z"/>
</g>

<g id="flash0_ai_Layer_1__Clip_Group__0_Layer2_8_FILL">
<path fill="#C2A543" stroke="none" d="
M 61.55 4.65
L 61.55 4.35 59.85 4.35 59.85 4.65 59.95 4.65 60 4.7 59.95 4.75 58.6 7.3 57.25 4.75 57.2 4.7 57.25 4.65 57.4 4.65 57.4 4.35 55.7 4.35 55.7 4.65 55.8 4.65 55.85 4.7 55.85 9.1 55.7 9.1 55.7 9.4 57.1 9.4 57.1 9.1 56.9 9.1 56.9 6.4 58.4 9.4 58.65 9.4 60.2 6.45 60.2 9.1 60.05 9.1 60.05 9.4 61.55 9.4 61.55 9.1 61.35 9.1 61.35 4.7 61.45 4.65 61.55 4.65 Z"/>
</g>

<g id="flash0_ai_Layer_1__Clip_Group__0_Layer2_9_FILL">
<path fill="#C2A543" stroke="none" d="
M 65.75 4.3
Q 64.5 4.3 63.7 4.95 62.85 5.7 62.85 6.9 62.85 8.05 63.7 8.8 64.5 9.45 65.75 9.45 67 9.45 67.8 8.8 68.65 8.05 68.65 6.9 68.65 5.7 67.8 4.95 67 4.3 65.75 4.3
M 64.55 5.7
Q 65 5.3 65.75 5.3 67.45 5.3 67.45 6.9 67.45 7.65 66.95 8.05 66.5 8.45 65.75 8.45 65 8.45 64.55 8.05 64.05 7.65 64.05 6.9 64.05 6.15 64.55 5.7 Z"/>
</g>

<g id="flash0_ai_Layer_1__Clip_Group__0_Layer2_10_FILL">
<path fill="#C2A543" stroke="none" d="
M 71.5 4.65
L 71.5 4.35 69.95 4.35 69.95 4.65 70.05 4.65 70.1 4.7 70.15 4.7 70.15 7.65
Q 70.15 8.65 70.85 9.05 71.45 9.45 72.7 9.45 73.95 9.45 74.55 9.05 75.25 8.65 75.25 7.65
L 75.25 4.7 75.35 4.65 75.45 4.65 75.45 4.35 73.9 4.35 73.9 4.65 74 4.65 74.05 4.7 74.1 4.7 74.1 7.5
Q 74.1 8 73.85 8.25 73.6 8.45 72.7 8.45 71.8 8.45 71.55 8.25 71.3 8.05 71.3 7.5
L 71.3 4.7 71.4 4.65 71.5 4.65 Z"/>
</g>

<g id="flash0_ai_Layer_1__Clip_Group__0_Layer2_11_FILL">
<path fill="#C2A543" stroke="none" d="
M 82.15 4.75
L 82.25 4.65 82.35 4.65 82.35 4.35 80.95 4.35 80.95 4.65 81.1 4.65 81.1 7.5 78.4 4.65 78.55 4.65 78.55 4.35 76.9 4.35 76.9 4.65 77.1 4.65 77.1 9.05 77.05 9.1 76.9 9.1 76.9 9.4 78.3 9.4 78.3 9.1 78.15 9.1 78.15 6.05 81 9.1 80.9 9.1 80.9 9.4 82.35 9.4 82.35 9.1 82.25 9.1 82.15 9 82.15 4.75 Z"/>
</g>

<g id="flash0_ai_Layer_1__Clip_Group__0_Layer2_12_FILL">
<path fill="#C2A543" stroke="none" d="
M 88.55 4.2
L 88.2 4.2 88.2 4.3
Q 88.2 4.35 88.1 4.35
L 83.95 4.35
Q 83.85 4.35 83.85 4.3
L 83.85 4.2 83.55 4.2 83.55 5.5 83.85 5.5 83.85 5.4 83.95 5.35 85.45 5.35 85.45 9.05 85.35 9.1 85.25 9.1 85.25 9.4 86.8 9.4 86.8 9.1 86.65 9.1 86.6 9.05 86.6 5.35 88.1 5.35 88.2 5.4 88.2 5.5 88.55 5.5 88.55 4.2 Z"/>
</g>

<g id="flash0_ai_Layer_1__Clip_Group__0_Layer2_13_FILL">
<path fill="#C2A543" stroke="none" d="
M 92.4 4.65
L 92.4 4.35 90.75 4.35 90.75 4.65 90.85 4.65 90.9 4.7 90.8 4.85 89 8.9
Q 88.9 9.05 88.85 9.1
L 88.75 9.1 88.75 9.4 90.15 9.4 90.15 9.1 90.05 9.1 90.5 8.1 92.65 8.1 93.1 9.1 92.95 9.1 92.95 9.4 94.5 9.4 94.5 9.1 94.4 9.1 94.35 9.05 94.25 8.9 92.25 4.7 92.3 4.65 92.4 4.65
M 91.5 5.8
L 92.15 7.15 90.9 7.15 91.5 5.8 Z"/>
</g>

<g id="flash0_ai_Layer_1__Clip_Group__0_Layer2_14_FILL">
<path fill="#C2A543" stroke="none" d="
M 97.35 4.65
L 97.35 4.35 95.7 4.35 95.7 4.65 95.85 4.65 95.95 4.7 95.95 9.05 95.85 9.1 95.7 9.1 95.7 9.4 97.35 9.4 97.35 9.1 97.25 9.1 97.15 9.05 97.1 9 97.1 4.75 97.15 4.7 97.25 4.65 97.35 4.65 Z"/>
</g>

<g id="flash0_ai_Layer_1__Clip_Group__0_Layer2_15_FILL">
<path fill="#C2A543" stroke="none" d="
M 102.95 4.35
L 102.95 4.65 103.1 4.65 103.1 7.5 100.4 4.65 100.55 4.65 100.55 4.35 98.95 4.35 98.95 4.65 99.1 4.65 99.1 9.1 98.95 9.1 98.95 9.4 100.3 9.4 100.3 9.1 100.15 9.1 100.15 6.05 103 9.1 102.9 9.1 102.9 9.4 104.35 9.4 104.35 9.1 104.25 9.1 104.2 9.05 104.2 4.7 104.25 4.65 104.35 4.65 104.35 4.35 102.95 4.35 Z"/>
</g>

<g id="flash0_ai_Layer_1__Clip_Group__0_Layer2_16_FILL">
<path fill="#C2A543" stroke="none" d="
M 110.7 4.2
L 110.4 4.2 110.4 4.35 105.85 4.35 105.85 4.65 106 4.65 106 9.1 105.85 9.1 105.85 9.4 110.45 9.4 110.45 9.55 110.75 9.55 110.75 8.25 110.45 8.25 110.45 8.35
Q 110.45 8.4 110.35 8.4
L 107.2 8.4 107.2 7.3 109.15 7.3 109.3 7.35 109.3 7.45 109.6 7.45 109.6 6.15 109.3 6.15 109.3 6.25
Q 109.25 6.3 109.15 6.3
L 107.2 6.3 107.2 5.35 110.25 5.35 110.4 5.4 110.4 5.55 110.7 5.55 110.7 4.2 Z"/>
</g>

<g id="flash0_ai_Layer_1__Clip_Group__0_Layer2_17_FILL">
<path fill="#C2A543" stroke="none" d="
M 116.9 4.2
L 116.6 4.2 116.6 4.35 112.05 4.35 112.05 4.65 112.2 4.65 112.2 9.1 112.05 9.1 112.05 9.4 116.65 9.4 116.65 9.55 116.95 9.55 116.95 8.25 116.65 8.25 116.65 8.35
Q 116.65 8.4 116.55 8.4
L 113.4 8.4 113.4 7.3 115.35 7.3 115.5 7.35 115.5 7.45 115.8 7.45 115.8 6.15 115.5 6.15 115.5 6.25
Q 115.45 6.3 115.35 6.3
L 113.4 6.3 113.4 5.35 116.5 5.35 116.6 5.4 116.6 5.55 116.9 5.55 116.9 4.2 Z"/>
</g>

<g id="flash0_ai_Layer_1__Clip_Group__0_Layer2_18_FILL">
<path fill="#C2A543" stroke="none" d="
M 122.95 4.8
Q 122.5 4.35 121.55 4.35
L 118.25 4.35 118.25 4.65 118.35 4.65 118.45 4.7 118.45 9.1 118.25 9.1 118.25 9.4 119.8 9.4 119.8 9.1 119.6 9.1 119.6 7.35 120.8 7.35 122 9 122.05 9.1 121.95 9.1 121.95 9.4 123.65 9.4 123.65 9.1 123.55 9.1
Q 123.5 9.1 123.35 8.95
L 122.2 7.35
Q 123.45 7.05 123.45 5.85 123.45 5.15 122.95 4.8
M 121.55 5.35
Q 122.3 5.35 122.3 5.85 122.3 6.35 121.55 6.35
L 119.65 6.35 119.65 5.35 121.55 5.35 Z"/>
</g>

<g id="flash0_ai_Layer_1__Clip_Group__0_Layer2_19_FILL">
<path fill="#C2A543" stroke="none" d="
M 14.2 1.95
Q 13.5 1.45 12.3 1 9.9 0 7.3 0 4.7 0 2.1 1 0.8 1.45 0 1.95
L 0.8 11.6 7.3 14.8 13.4 11.6 14.2 1.95
M 11.9 1.45
Q 13 1.85 13.6 2.25
L 12.85 11.25 7.3 14.15 1.35 11.2 0.6 2.25
Q 1.3 1.85 2.5 1.45 4.9 0.6 7.3 0.6 9.7 0.6 11.9 1.45
M 7.9 4.6
L 7.9 4.55 7.35 3.3 5.75 7.05 7.3 10.1 8.45 7.4 7.6 5.5 7.6 5.4 7.9 4.6
M 12.3 9.95
L 12.95 2.6
Q 12.4 2.25 11.4 1.95 9.45 1.25 7.25 1.25 3.8 1.25 1.25 2.65
L 1.9 9.9 4.25 4.7 4.4 4.6 4.5 4.7 5.35 6.3 7.15 2.05
Q 7.15 1.95 7.3 1.95
L 7.4 2.05 8.65 4.55 8.6 4.6 8.3 5.4 8.3 5.5 8.8 6.6 9.65 4.65 9.75 4.6 9.9 4.7 12.3 9.95
M 8.85 8.25
L 7.45 11.4 7.35 11.5 7.2 11.45 5.4 7.9 3.75 11.7 7.25 13.45 10.45 11.75 8.85 8.25
M 2.2 10.9
L 3.2 11.4 5 7.1 4.45 6 2.2 10.9
M 11 11.45
L 12 10.95 9.8 6.05 9.2 7.45 11 11.45 Z"/>
</g>
</defs>

<g transform="matrix( 1.7585906982421875, 0, 0, 1.7585906982421875, 36,189) ">
<use xlink:href="#Layer0_0_FILL"/>
</g>

<g transform="matrix( 1.7585906982421875, 0, 0, 1.7585906982421875, 36,189) ">
<use xlink:href="#Layer0_1_FILL"/>
</g>

<g transform="matrix( 1.7585906982421875, 0, 0, 1.7585906982421875, 36,189) ">
<use xlink:href="#Layer0_2_FILL"/>
</g>

<g transform="matrix( 1.7585906982421875, 0, 0, 1.7585906982421875, 36,189) ">
<mask id="Mask_Mask_1">
<g transform="matrix( 1, 0, 0, 1, 0,0) ">
<use xlink:href="#Mask_flash0_ai_Layer_1__Clip_Group__1_0_2_MASK_0_FILL"/>
</g>
</mask>

<g mask="url(#Mask_Mask_1)">
<g transform="matrix( 1, 0, 0, 1, 0,0) ">
<use xlink:href="#flash0_ai_Layer_1__Clip_Group__1_0_Layer2_0_FILL"/>
</g>

<g transform="matrix( 1, 0, 0, 1, 0,0) ">
<use xlink:href="#flash0_ai_Layer_1__Clip_Group__1_0_Layer2_1_FILL"/>
</g>

<g transform="matrix( 1, 0, 0, 1, 0,0) ">
<use xlink:href="#flash0_ai_Layer_1__Clip_Group__1_0_Layer2_2_FILL"/>
</g>

<g transform="matrix( 1, 0, 0, 1, 0,0) ">
<use xlink:href="#flash0_ai_Layer_1__Clip_Group__1_0_Layer2_3_FILL"/>
</g>

<g transform="matrix( 1, 0, 0, 1, 0,0) ">
<use xlink:href="#flash0_ai_Layer_1__Clip_Group__1_0_Layer2_4_FILL"/>
</g>

<g transform="matrix( 1, 0, 0, 1, 0,0) ">
<use xlink:href="#flash0_ai_Layer_1__Clip_Group__1_0_Layer2_5_FILL"/>
</g>

<g transform="matrix( 1, 0, 0, 1, 0,0) ">
<use xlink:href="#flash0_ai_Layer_1__Clip_Group__1_0_Layer2_6_FILL"/>
</g>

<g transform="matrix( 1, 0, 0, 1, 0,0) ">
<use xlink:href="#flash0_ai_Layer_1__Clip_Group__1_0_Layer2_7_FILL"/>
</g>

<g transform="matrix( 1, 0, 0, 1, 0,0) ">
<use xlink:href="#flash0_ai_Layer_1__Clip_Group__1_0_Layer2_8_FILL"/>
</g>
</g>
</g>

<g transform="matrix( 1.7585906982421875, 0, 0, 1.7585906982421875, 36,189) ">
<use xlink:href="#Layer0_4_FILL"/>
</g>

<g transform="matrix( 1.7585906982421875, 0, 0, 1.7585906982421875, 36,189) ">
<use xlink:href="#Layer0_5_FILL"/>
</g>

<g transform="matrix( 1.7585906982421875, 0, 0, 1.7585906982421875, 36,189) ">
<mask id="Mask_Mask_2">
<g transform="matrix( 1, 0, 0, 1, 0,0) ">
<use xlink:href="#Mask_flash0_ai_Layer_1__Clip_Group__0_2_MASK_0_FILL"/>
</g>
</mask>

<g mask="url(#Mask_Mask_2)">
<g transform="matrix( 1, 0, 0, 1, 0,0) ">
<use xlink:href="#flash0_ai_Layer_1__Clip_Group__0_Layer2_0_FILL"/>
</g>

<g transform="matrix( 1, 0, 0, 1, 0,0) ">
<use xlink:href="#flash0_ai_Layer_1__Clip_Group__0_Layer2_1_FILL"/>
</g>

<g transform="matrix( 1, 0, 0, 1, 0,0) ">
<use xlink:href="#flash0_ai_Layer_1__Clip_Group__0_Layer2_2_FILL"/>
</g>

<g transform="matrix( 1, 0, 0, 1, 0,0) ">
<use xlink:href="#flash0_ai_Layer_1__Clip_Group__0_Layer2_3_FILL"/>
</g>

<g transform="matrix( 1, 0, 0, 1, 0,0) ">
<use xlink:href="#flash0_ai_Layer_1__Clip_Group__0_Layer2_4_FILL"/>
</g>

<g transform="matrix( 1, 0, 0, 1, 0,0) ">
<use xlink:href="#flash0_ai_Layer_1__Clip_Group__0_Layer2_5_FILL"/>
</g>

<g transform="matrix( 1, 0, 0, 1, 0,0) ">
<use xlink:href="#flash0_ai_Layer_1__Clip_Group__0_Layer2_6_FILL"/>
</g>

<g transform="matrix( 1, 0, 0, 1, 0,0) ">
<use xlink:href="#flash0_ai_Layer_1__Clip_Group__0_Layer2_7_FILL"/>
</g>

<g transform="matrix( 1, 0, 0, 1, 0,0) ">
<use xlink:href="#flash0_ai_Layer_1__Clip_Group__0_Layer2_8_FILL"/>
</g>

<g transform="matrix( 1, 0, 0, 1, 0,0) ">
<use xlink:href="#flash0_ai_Layer_1__Clip_Group__0_Layer2_9_FILL"/>
</g>

<g transform="matrix( 1, 0, 0, 1, 0,0) ">
<use xlink:href="#flash0_ai_Layer_1__Clip_Group__0_Layer2_10_FILL"/>
</g>

<g transform="matrix( 1, 0, 0, 1, 0,0) ">
<use xlink:href="#flash0_ai_Layer_1__Clip_Group__0_Layer2_11_FILL"/>
</g>

<g transform="matrix( 1, 0, 0, 1, 0,0) ">
<use xlink:href="#flash0_ai_Layer_1__Clip_Group__0_Layer2_12_FILL"/>
</g>

<g transform="matrix( 1, 0, 0, 1, 0,0) ">
<use xlink:href="#flash0_ai_Layer_1__Clip_Group__0_Layer2_13_FILL"/>
</g>

<g transform="matrix( 1, 0, 0, 1, 0,0) ">
<use xlink:href="#flash0_ai_Layer_1__Clip_Group__0_Layer2_14_FILL"/>
</g>

<g transform="matrix( 1, 0, 0, 1, 0,0) ">
<use xlink:href="#flash0_ai_Layer_1__Clip_Group__0_Layer2_15_FILL"/>
</g>

<g transform="matrix( 1, 0, 0, 1, 0,0) ">
<use xlink:href="#flash0_ai_Layer_1__Clip_Group__0_Layer2_16_FILL"/>
</g>

<g transform="matrix( 1, 0, 0, 1, 0,0) ">
<use xlink:href="#flash0_ai_Layer_1__Clip_Group__0_Layer2_17_FILL"/>
</g>

<g transform="matrix( 1, 0, 0, 1, 0,0) ">
<use xlink:href="#flash0_ai_Layer_1__Clip_Group__0_Layer2_18_FILL"/>
</g>

<g transform="matrix( 1, 0, 0, 1, 0,0) ">
<use xlink:href="#flash0_ai_Layer_1__Clip_Group__0_Layer2_19_FILL"/>
</g>
</g>
</g>
</svg>
